CENG232-20182/hw3/part2/hw3_part_2_2019_old/hw3_part_2_2019/isim.log
ISim log file
Running: C:\Users\erene\OneDrive\Belgeler\Dersler\20182\CENG232\hw3\part2\hw3_part_2_2019\hw3_part_2_2019\testbench_formula1_isim_beh.exe -intstyle ise -gui -tclbatch isim.cmd -wdb C:/Users/erene/OneDrive/Belgeler/Dersler/20182/CENG232/hw3/part2/hw3_part_2_2019/hw3_part_2_2019/testbench_formula1_isim_beh.wdb 
ISim P.20131013 (signature 0x8ef4fb42)
WARNING: A WEBPACK license was found.
WARNING: Please use Xilinx License Configuration Manager to check out a full ISim license.
WARNING: ISim will run in Lite mode. Please refer to the ISim documentation for more information on the differences between the Lite and the Full version.
This is a Lite version of ISim.
Time resolution is 1 ps
# onerror resume
# wave add /
# run 1000 ns
Simulator is doing circuit initialization process.
Finished circuit initialization process.
TIME=                   0 | N=11 CLR=0 MODE=0 SEL=0 | D1=  0 D0=  0 C1=  0 C0=  0 WARNING=0
TIME=                3000 | N=11 CLR=0 MODE=0 SEL=0 | D1=  7 D0= 11 C1=  0 C0=  1 WARNING=0
Test1: Passed
TIME=                7000 | N= 7 CLR=0 MODE=1 SEL=0 | D1=  7 D0= 11 C1=  0 C0=  1 WARNING=0
TIME=                9000 | N= 7 CLR=0 MODE=1 SEL=0 | D1= 11 D0=  7 C1=  1 C0=  1 WARNING=0
Test2: Passed
TIME=               13000 | N= 7 CLR=0 MODE=1 SEL=1 | D1= 11 D0=  7 C1=  1 C0=  1 WARNING=0
TIME=               15000 | N= 7 CLR=0 MODE=1 SEL=1 | D1= 11 D0=  7 C1=  1 C0=  1 WARNING=1
Test3: Passed
TIME=               19000 | N= 6 CLR=0 MODE=1 SEL=1 | D1= 11 D0=  7 C1=  1 C0=  1 WARNING=1
TIME=               21000 | N= 6 CLR=0 MODE=1 SEL=1 | D1= 12 D0=  6 C1=  1 C0=  0 WARNING=0
Test4: Passed
TIME=               25000 | N= 5 CLR=0 MODE=0 SEL=0 | D1= 12 D0=  6 C1=  1 C0=  0 WARNING=0
TIME=               27000 | N= 5 CLR=0 MODE=0 SEL=0 | D1=  3 D0=  5 C1=  1 C0=  2 WARNING=0
Test5: Passed
TIME=               31000 | N=15 CLR=1 MODE=1 SEL=1 | D1=  3 D0=  5 C1=  1 C0=  2 WARNING=0
TIME=               33000 | N=15 CLR=1 MODE=1 SEL=1 | D1=  0 D0=  0 C1=  0 C0=  0 WARNING=0
Test6: Passed
TIME=               37000 | N=11 CLR=0 MODE=0 SEL=0 | D1=  0 D0=  0 C1=  0 C0=  0 WARNING=0
TIME=               39000 | N=11 CLR=0 MODE=0 SEL=0 | D1=  7 D0= 11 C1=  0 C0=  1 WARNING=0
Test7: Passed
TIME=               43000 | N= 7 CLR=0 MODE=1 SEL=0 | D1=  7 D0= 11 C1=  0 C0=  1 WARNING=0
TIME=               45000 | N= 7 CLR=0 MODE=1 SEL=0 | D1= 11 D0=  7 C1=  1 C0=  1 WARNING=0
Test8: Passed
TIME=               49000 | N=15 CLR=1 MODE=1 SEL=1 | D1= 11 D0=  7 C1=  1 C0=  1 WARNING=0
TIME=               51000 | N=15 CLR=1 MODE=1 SEL=1 | D1=  0 D0=  0 C1=  0 C0=  0 WARNING=0
Test9: Passed
TIME=               55000 | N=11 CLR=0 MODE=0 SEL=0 | D1=  0 D0=  0 C1=  0 C0=  0 WARNING=0
TIME=               57000 | N=11 CLR=0 MODE=0 SEL=0 | D1=  7 D0= 11 C1=  0 C0=  1 WARNING=0
Test10: Passed
TIME=               61000 | N= 6 CLR=0 MODE=1 SEL=1 | D1=  7 D0= 11 C1=  0 C0=  1 WARNING=0
TIME=               63000 | N= 6 CLR=0 MODE=1 SEL=1 | D1= 12 D0=  6 C1=  1 C0=  0 WARNING=0
Test11: Passed
Ozan's test results:          11 / 11
Stopped at time : 67 ns : File "C:/Users/erene/OneDrive/Belgeler/Dersler/20182/CENG232/hw3/part2/hw3_part_2_2019/hw3_part_2_2019/test.v" Line 173
