CENG232-20182/hw4/part1/hw4_part_1_2019/isim.log
ISim log file
Running: C:\Users\erene\OneDrive\Belgeler\Dersler\20182\CENG232\hw4\part1\hw4_part_1_2019\rgb_testbench_isim_beh.exe -intstyle ise -gui -tclbatch isim.cmd -wdb C:/Users/erene/OneDrive/Belgeler/Dersler/20182/CENG232/hw4/part1/hw4_part_1_2019/rgb_testbench_isim_beh.wdb 
ISim P.20131013 (signature 0x8ef4fb42)
WARNING: A WEBPACK license was found.
WARNING: Please use Xilinx License Configuration Manager to check out a full ISim license.
WARNING: ISim will run in Lite mode. Please refer to the ISim documentation for more information on the differences between the Lite and the Full version.
This is a Lite version of ISim.
Time resolution is 1 ps
# onerror resume
# wave add /
# run 1000 ns
Simulator is doing circuit initialization process.
Finished circuit initialization process.
TIME=                   0 | Mode=1 Addres=1010 RGBin=100000011100001101000010 Op=000 | RGBout=xxxxxxxxxxxxxxxxxxxxxxxx
TIME=                4000 | Mode=0 Addres=1010 RGBin=100000011100001101000010 Op=000 | RGBout=100000001000001000000010
Test1: Passed
TIME=               13000 | Mode=1 Addres=1010 RGBin=100000011100001101000010 Op=001 | RGBout=100000001000001000000010
TIME=               16000 | Mode=0 Addres=1010 RGBin=100000011100001101000010 Op=001 | RGBout=101001111110011111100110
Test2: Passed
TIME=               25000 | Mode=1 Addres=1010 RGBin=100000011100001101000010 Op=010 | RGBout=101001111110011111100110
TIME=               28000 | Mode=0 Addres=1010 RGBin=100000011100001101000010 Op=010 | RGBout=001001110110010111100100
Test3: Passed
TIME=               37000 | Mode=1 Addres=1010 RGBin=100000011100001101000010 Op=011 | RGBout=001001110110010111100100
TIME=               40000 | Mode=0 Addres=1010 RGBin=100000011100001101000010 Op=011 | RGBout=111111111111111111101000
Test4: Passed
TIME=               49000 | Mode=1 Addres=1010 RGBin=100000011100001101000010 Op=100 | RGBout=111111111111111111101000
TIME=               52000 | Mode=0 Addres=1010 RGBin=100000011100001101000010 Op=100 | RGBout=000000000001110100000000
Test5: Passed
TIME=               61000 | Mode=1 Addres=1010 RGBin=100000011100001101000010 Op=101 | RGBout=000000000001110100000000
TIME=               64000 | Mode=0 Addres=1010 RGBin=100000011100001101000010 Op=101 | RGBout=100000101100010001000011
Test6: Passed
TIME=               73000 | Mode=1 Addres=1010 RGBin=100000011100001101000010 Op=110 | RGBout=100000101100010001000011
TIME=               76000 | Mode=0 Addres=1010 RGBin=100000011100001101000010 Op=110 | RGBout=100000001100001001000001
Test7: Passed
TIME=               85000 | Mode=1 Addres=1010 RGBin=100000011100001101000010 Op=111 | RGBout=100000001100001001000001
TIME=               88000 | Mode=0 Addres=1010 RGBin=100000011100001101000010 Op=111 | RGBout=000000111000011110000100
Test8: Passed
TIME=               97000 | Mode=1 Addres=1110 RGBin=011000110110010101100111 Op=000 | RGBout=000000111000011110000100
TIME=              100000 | Mode=0 Addres=1110 RGBin=011000110110010101100111 Op=000 | RGBout=010000110100000101000011
Test9: Passed
TIME=              109000 | Mode=1 Addres=1110 RGBin=011000110110010101100111 Op=001 | RGBout=010000110100000101000011
TIME=              112000 | Mode=0 Addres=1110 RGBin=011000110110010101100111 Op=001 | RGBout=111100111111011111110111
Test10: Passed
TIME=              121000 | Mode=1 Addres=1110 RGBin=011000110110010101100111 Op=010 | RGBout=111100111111011111110111
TIME=              124000 | Mode=0 Addres=1110 RGBin=011000110110010101100111 Op=010 | RGBout=101100001011011010110100
Test11: Passed
TIME=              133000 | Mode=1 Addres=1110 RGBin=011000110110010101100111 Op=011 | RGBout=101100001011011010110100
TIME=              136000 | Mode=0 Addres=1110 RGBin=011000110110010101100111 Op=011 | RGBout=111111111111111111111111
Test12: Passed
TIME=              145000 | Mode=1 Addres=1110 RGBin=011000110110010101100111 Op=100 | RGBout=111111111111111111111111
TIME=              148000 | Mode=0 Addres=1110 RGBin=011000110110010101100111 Op=100 | RGBout=000000000000000000000000
Test13: Passed
TIME=              157000 | Mode=1 Addres=1110 RGBin=011000110110010101100111 Op=101 | RGBout=000000000000000000000000
TIME=              160000 | Mode=0 Addres=1110 RGBin=011000110110010101100111 Op=101 | RGBout=011001000110011001101000
Test14: Passed
TIME=              169000 | Mode=1 Addres=1110 RGBin=011000110110010101100111 Op=110 | RGBout=011001000110011001101000
TIME=              172000 | Mode=0 Addres=1110 RGBin=011000110110010101100111 Op=110 | RGBout=011000100110010001100110
Test15: Passed
TIME=              181000 | Mode=1 Addres=1110 RGBin=011000110110010101100111 Op=111 | RGBout=011000100110010001100110
TIME=              184000 | Mode=0 Addres=1110 RGBin=011000110110010101100111 Op=111 | RGBout=110001101100101011001110
Test16: Passed
Test results:          16 / 16
Stopped at time : 193 ns : File "C:/Users/erene/OneDrive/Belgeler/Dersler/20182/CENG232/hw4/part1/hw4_part_1_2019/rgb_testbench.v" Line 209
