CENG232-20182/hw3/part1/hw3_part_1_2019/isim.log
ISim log file
Running: C:\Users\erene\OneDrive\Belgeler\Dersler\20182\CENG232\hw3\part1\hw3_part_1_2019\testbench_icplusplus_isim_beh.exe -intstyle ise -gui -tclbatch isim.cmd -wdb C:/Users/erene/OneDrive/Belgeler/Dersler/20182/CENG232/hw3/part1/hw3_part_1_2019/testbench_icplusplus_isim_beh.wdb 
ISim P.20131013 (signature 0x8ef4fb42)
WARNING: A WEBPACK license was found.
WARNING: Please use Xilinx License Configuration Manager to check out a full ISim license.
WARNING: ISim will run in Lite mode. Please refer to the ISim documentation for more information on the differences between the Lite and the Full version.
This is a Lite version of ISim.
Time resolution is 1 ps
# onerror resume
# wave add /
# run 1000 ns
Simulator is doing circuit initialization process.
Finished circuit initialization process.
TIME=                   0 | d0=0 f0=0 d1=0 f1=0 | Q0=0 Y=1 Q1=0
TIME=                3000 | d0=0 f0=0 d1=0 f1=0 | Q0=1 Y=1 Q1=1
Successful
TIME=                7000 | d0=0 f0=1 d1=0 f1=0 | Q0=1 Y=1 Q1=1
Successful
TIME=               13000 | d0=1 f0=0 d1=0 f1=0 | Q0=1 Y=1 Q1=1
TIME=               15000 | d0=1 f0=0 d1=0 f1=0 | Q0=0 Y=0 Q1=1
Successful
TIME=               19000 | d0=1 f0=1 d1=0 f1=0 | Q0=0 Y=0 Q1=1
TIME=               21000 | d0=1 f0=1 d1=0 f1=0 | Q0=1 Y=1 Q1=1
Successful
TIME=               25000 | d0=0 f0=0 d1=0 f1=1 | Q0=1 Y=1 Q1=1
Successful
TIME=               31000 | d0=0 f0=1 d1=0 f1=1 | Q0=1 Y=1 Q1=1
Successful
TIME=               37000 | d0=1 f0=0 d1=0 f1=1 | Q0=1 Y=1 Q1=1
TIME=               39000 | d0=1 f0=0 d1=0 f1=1 | Q0=0 Y=0 Q1=1
Successful
TIME=               43000 | d0=1 f0=1 d1=0 f1=1 | Q0=0 Y=0 Q1=1
TIME=               45000 | d0=1 f0=1 d1=0 f1=1 | Q0=1 Y=1 Q1=1
Successful
TIME=               49000 | d0=0 f0=0 d1=1 f1=0 | Q0=1 Y=1 Q1=1
TIME=               51000 | d0=0 f0=0 d1=1 f1=0 | Q0=1 Y=0 Q1=0
Successful
TIME=               55000 | d0=0 f0=1 d1=1 f1=0 | Q0=1 Y=0 Q1=0
Successful
TIME=               61000 | d0=1 f0=0 d1=1 f1=0 | Q0=1 Y=0 Q1=0
TIME=               63000 | d0=1 f0=0 d1=1 f1=0 | Q0=0 Y=1 Q1=0
Successful
TIME=               67000 | d0=1 f0=1 d1=1 f1=0 | Q0=0 Y=1 Q1=0
TIME=               69000 | d0=1 f0=1 d1=1 f1=0 | Q0=1 Y=0 Q1=0
Successful
TIME=               73000 | d0=0 f0=0 d1=1 f1=1 | Q0=1 Y=0 Q1=0
TIME=               75000 | d0=0 f0=0 d1=1 f1=1 | Q0=1 Y=1 Q1=1
Successful
TIME=               79000 | d0=0 f0=1 d1=1 f1=1 | Q0=1 Y=1 Q1=1
TIME=               81000 | d0=0 f0=1 d1=1 f1=1 | Q0=1 Y=0 Q1=0
Successful
TIME=               85000 | d0=1 f0=0 d1=1 f1=1 | Q0=1 Y=0 Q1=0
TIME=               87000 | d0=1 f0=0 d1=1 f1=1 | Q0=0 Y=0 Q1=1
Successful
TIME=               91000 | d0=1 f0=1 d1=1 f1=1 | Q0=0 Y=0 Q1=1
TIME=               93000 | d0=1 f0=1 d1=1 f1=1 | Q0=1 Y=0 Q1=0
Successful
Ozan's test results:          16 / 16
Stopped at time : 97 ns : File "C:/Users/erene/OneDrive/Belgeler/Dersler/20182/CENG232/hw3/part1/hw3_part_1_2019/testbench_icplusplus.v" Line 177
